\relax 
\providecommand\hyper@newdestlabel[2]{}
\@writefile{toc}{\contentsline {chapter}{\numberline {6}Fazit zum Aufbau und Betrieb einer Beratungsstelle}{78}{chapter.6}}
\@writefile{lof}{\addvspace {10\p@ }}
\@writefile{lot}{\addvspace {10\p@ }}
\newlabel{KapKapitel6}{{6}{78}{Fazit zum Aufbau und Betrieb einer Beratungsstelle}{chapter.6}{}}
\@writefile{toc}{\contentsline {section}{\numberline {6.1}Aufbau}{78}{section.6.1}}
\citation{GPorsch2014}
\@writefile{toc}{\contentsline {section}{\numberline {6.2}Betrieb}{79}{section.6.2}}
\@setckpt{chapter6}{
\setcounter{page}{81}
\setcounter{equation}{0}
\setcounter{enumi}{3}
\setcounter{enumii}{0}
\setcounter{enumiii}{0}
\setcounter{enumiv}{0}
\setcounter{footnote}{14}
\setcounter{mpfootnote}{0}
\setcounter{part}{0}
\setcounter{chapter}{6}
\setcounter{section}{2}
\setcounter{subsection}{0}
\setcounter{subsubsection}{0}
\setcounter{paragraph}{0}
\setcounter{subparagraph}{0}
\setcounter{figure}{0}
\setcounter{table}{0}
\setcounter{NAT@ctr}{0}
\setcounter{Item}{6}
\setcounter{Hfootnote}{14}
\setcounter{bookmark@seq@number}{62}
\setcounter{LT@tables}{1}
\setcounter{LT@chunks}{1}
\setcounter{r@tfl@t}{1}
\setcounter{AM@survey}{0}
\setcounter{ContinuedFloat}{0}
\setcounter{section@level}{1}
}
