\relax 
\providecommand\hyper@newdestlabel[2]{}
\@writefile{toc}{\contentsline {chapter}{\numberline {1}Einleitung}{1}{chapter.1}}
\@writefile{lof}{\addvspace {10\p@ }}
\@writefile{lot}{\addvspace {10\p@ }}
\newlabel{KapKapitel1}{{1}{1}{Einleitung}{chapter.1}{}}
\@writefile{toc}{\contentsline {section}{\numberline {1.1}Genderhinweis}{1}{section.1.1}}
\@writefile{toc}{\contentsline {section}{\numberline {1.2}Problemstellung}{1}{section.1.2}}
\@writefile{toc}{\contentsline {section}{\numberline {1.3}Zielsetzung und Motivation}{2}{section.1.3}}
\@writefile{toc}{\contentsline {section}{\numberline {1.4}Aufbau der Arbeit}{2}{section.1.4}}
\@writefile{toc}{\contentsline {section}{\numberline {1.5}Vorgangsweise}{3}{section.1.5}}
\@setckpt{chapter1}{
\setcounter{page}{5}
\setcounter{equation}{0}
\setcounter{enumi}{0}
\setcounter{enumii}{0}
\setcounter{enumiii}{0}
\setcounter{enumiv}{0}
\setcounter{footnote}{2}
\setcounter{mpfootnote}{0}
\setcounter{part}{0}
\setcounter{chapter}{1}
\setcounter{section}{5}
\setcounter{subsection}{0}
\setcounter{subsubsection}{0}
\setcounter{paragraph}{0}
\setcounter{subparagraph}{0}
\setcounter{figure}{0}
\setcounter{table}{0}
\setcounter{NAT@ctr}{0}
\setcounter{Item}{0}
\setcounter{Hfootnote}{2}
\setcounter{bookmark@seq@number}{12}
\setcounter{LT@tables}{0}
\setcounter{LT@chunks}{0}
\setcounter{r@tfl@t}{0}
\setcounter{AM@survey}{0}
\setcounter{ContinuedFloat}{0}
\setcounter{section@level}{1}
}
