\relax 
\providecommand\hyper@newdestlabel[2]{}
\@writefile{toc}{\contentsline {chapter}{\numberline {4}Konzeptarbeiten}{24}{chapter.4}}
\@writefile{lof}{\addvspace {10\p@ }}
\@writefile{lot}{\addvspace {10\p@ }}
\newlabel{KapKapitel4}{{4}{24}{Konzeptarbeiten}{chapter.4}{}}
\@writefile{toc}{\contentsline {section}{\numberline {4.1}Ist-Zustand}{25}{section.4.1}}
\newlabel{skala}{{\caption@xref {skala}{ on input line 133}}{28}{Ist-Zustand}{figure.caption.16}{}}
\@writefile{toc}{\contentsline {subsection}{\numberline {4.1.1}Auswertung des Fragebogens}{32}{subsection.4.1.1}}
\@writefile{toc}{\contentsline {subsubsection}{\numberline {4.1.1.1}Regionale Ansiedelung der KBS}{32}{subsubsection.4.1.1.1}}
\@writefile{lof}{\contentsline {figure}{\numberline {\relax 4.1}{\ignorespaces Organisatorische Anbindung der KBS\relax }}{32}{figure.caption.17}}
\newlabel{oAnbindung}{{\relax 4.1}{32}{Organisatorische Anbindung der KBS\relax }{figure.caption.17}{}}
\citation{A2LICE2014}
\@writefile{lof}{\contentsline {figure}{\numberline {\relax 4.2}{\ignorespaces Physische Anbindung der KBS\relax }}{33}{figure.caption.18}}
\newlabel{pAnbindung}{{\relax 4.2}{33}{Physische Anbindung der KBS\relax }{figure.caption.18}{}}
\@writefile{toc}{\contentsline {subsubsection}{\numberline {4.1.1.2}Aktuelle Situation}{33}{subsubsection.4.1.1.2}}
\@writefile{toc}{\contentsline {subsubsection}{\numberline {4.1.1.3}Berater}{34}{subsubsection.4.1.1.3}}
\@writefile{lof}{\contentsline {figure}{\numberline {\relax 4.3}{\ignorespaces Berufliche Hintergrund der Beratenden\relax }}{34}{figure.caption.19}}
\newlabel{hintergrund}{{\relax 4.3}{34}{Berufliche Hintergrund der Beratenden\relax }{figure.caption.19}{}}
\@writefile{lof}{\contentsline {figure}{\numberline {\relax 4.4}{\ignorespaces Technikaffinit\"at der Berater\relax }}{35}{figure.caption.20}}
\newlabel{technikaffin}{{\relax 4.4}{35}{Technikaffinität der Berater\relax }{figure.caption.20}{}}
\@writefile{toc}{\contentsline {subsubsection}{\numberline {4.1.1.4}Zielgruppe und Angebot}{35}{subsubsection.4.1.1.4}}
\@writefile{lof}{\contentsline {figure}{\numberline {\relax 4.5}{\ignorespaces Zielgruppe\relax }}{36}{figure.4.5}}
\newlabel{zielgruppe}{{\relax 4.5}{36}{Zielgruppe\relax }{figure.4.5}{}}
\@writefile{lof}{\contentsline {figure}{\numberline {\relax 4.6}{\ignorespaces Multiplikatoren\relax }}{36}{figure.4.6}}
\newlabel{multiplikatoren}{{\relax 4.6}{36}{Multiplikatoren\relax }{figure.4.6}{}}
\@writefile{lof}{\contentsline {figure}{\numberline {\relax 4.7}{\ignorespaces Erstkontakt\relax }}{37}{figure.caption.21}}
\newlabel{Erstkontakt}{{\relax 4.7}{37}{Erstkontakt\relax }{figure.caption.21}{}}
\@writefile{toc}{\contentsline {subsubsection}{\numberline {4.1.1.5}Kooperationen}{38}{subsubsection.4.1.1.5}}
\@writefile{lof}{\contentsline {figure}{\numberline {\relax 4.8}{\ignorespaces Bestehende Kooperationen\relax }}{38}{figure.4.8}}
\newlabel{Kooperationen}{{\relax 4.8}{38}{Bestehende Kooperationen\relax }{figure.4.8}{}}
\@writefile{lof}{\contentsline {figure}{\numberline {\relax 4.9}{\ignorespaces Noch aufzubauende Kooperationen\relax }}{38}{figure.4.9}}
\newlabel{aufbau}{{\relax 4.9}{38}{Noch aufzubauende Kooperationen\relax }{figure.4.9}{}}
\citation{Telko2014}
\@writefile{toc}{\contentsline {subsubsection}{\numberline {4.1.1.6}Finanzierung}{39}{subsubsection.4.1.1.6}}
\citation{Telko2014}
\@writefile{toc}{\contentsline {section}{\numberline {4.2}Erstellung der Hypothesen}{40}{section.4.2}}
\@writefile{lof}{\contentsline {figure}{\numberline {\relax 4.10}{\ignorespaces Evaluationsziele\relax }}{40}{figure.4.10}}
\newlabel{Evaluationsziele}{{\relax 4.10}{40}{Evaluationsziele\relax }{figure.4.10}{}}
\newlabel{RF1}{42}
\@writefile{lot}{\contentsline {table}{\numberline {\relax 4.1}{\ignorespaces Evaluationsziele\relax }}{42}{table.caption.22}}
\@writefile{toc}{\contentsline {section}{\numberline {4.3}Ablauf der Datenerhebung f\"ur die Evaluation}{43}{section.4.3}}
\@writefile{lof}{\contentsline {figure}{\numberline {\relax 4.11}{\ignorespaces Ablauf der Datenerhebung der Evaluation\relax }}{43}{figure.4.11}}
\newlabel{Timeline}{{\relax 4.11}{43}{Ablauf der Datenerhebung der Evaluation\relax }{figure.4.11}{}}
\@writefile{lot}{\contentsline {table}{\numberline {\relax 4.2}{\ignorespaces Abdeckung der Unterziele\relax }}{43}{table.caption.23}}
\@writefile{toc}{\contentsline {subsection}{\numberline {4.3.1}Leitfaden f\"ur die Evaluation}{44}{subsection.4.3.1}}
\@writefile{lot}{\contentsline {table}{\numberline {\relax 4.3}{\ignorespaces Abfragen CareTech\relax }}{44}{table.caption.24}}
\citation{kostka2013}
\citation{kostka2013}
\@writefile{toc}{\contentsline {subsection}{\numberline {4.3.2}Kontinuierlicher Verbesserungsprozess}{47}{subsection.4.3.2}}
\@writefile{lof}{\contentsline {figure}{\numberline {\relax 4.12}{\ignorespaces Kontinuierlicher Verbesserungsprozess\relax }}{47}{figure.4.12}}
\newlabel{KVP}{{\relax 4.12}{47}{Kontinuierlicher Verbesserungsprozess\relax }{figure.4.12}{}}
\@setckpt{chapter4}{
\setcounter{page}{48}
\setcounter{equation}{0}
\setcounter{enumi}{3}
\setcounter{enumii}{0}
\setcounter{enumiii}{0}
\setcounter{enumiv}{0}
\setcounter{footnote}{12}
\setcounter{mpfootnote}{0}
\setcounter{part}{0}
\setcounter{chapter}{4}
\setcounter{section}{3}
\setcounter{subsection}{2}
\setcounter{subsubsection}{0}
\setcounter{paragraph}{0}
\setcounter{subparagraph}{0}
\setcounter{figure}{12}
\setcounter{table}{3}
\setcounter{NAT@ctr}{0}
\setcounter{Item}{6}
\setcounter{Hfootnote}{12}
\setcounter{bookmark@seq@number}{35}
\setcounter{LT@tables}{1}
\setcounter{LT@chunks}{1}
\setcounter{r@tfl@t}{1}
\setcounter{AM@survey}{0}
\setcounter{ContinuedFloat}{0}
\setcounter{section@level}{2}
}
