\relax 
\providecommand\hyper@newdestlabel[2]{}
\citation{Mueller2014}
\@writefile{toc}{\contentsline {chapter}{\numberline {5}Auswertung der Ergebnisse}{48}{chapter.5}}
\@writefile{lof}{\addvspace {10\p@ }}
\@writefile{lot}{\addvspace {10\p@ }}
\newlabel{KapKapitel5}{{5}{48}{Auswertung der Ergebnisse}{chapter.5}{}}
\@writefile{toc}{\contentsline {section}{\numberline {5.1}Befragung der Beratenden}{48}{section.5.1}}
\@writefile{toc}{\contentsline {subsection}{\numberline {5.1.1}CareTech}{48}{subsection.5.1.1}}
\citation{Mueller2014}
\citation{Mueller2014}
\citation{Mueller2014}
\@writefile{toc}{\contentsline {subsection}{\numberline {5.1.2}Andere Dokumentationsarten}{49}{subsection.5.1.2}}
\citation{KBS42014}
\citation{KBS62014}
\citation{KBS102014}
\@writefile{lof}{\contentsline {figure}{\numberline {\relax 5.1}{\ignorespaces Andere Dokumentationsarten\relax }}{50}{figure.caption.25}}
\newlabel{anderedoku}{{\relax 5.1}{50}{Andere Dokumentationsarten\relax }{figure.caption.25}{}}
\citation{KBS32014}
\citation{Mueller2014}
\@writefile{toc}{\contentsline {subsection}{\numberline {5.1.3}Wegweiser Portal}{51}{subsection.5.1.3}}
\citation{Mueller2014}
\@writefile{lof}{\contentsline {figure}{\numberline {\relax 5.2}{\ignorespaces Nutzungsarten des Wegweiser Portals\relax }}{52}{figure.caption.26}}
\newlabel{nutzungwegweiser}{{\relax 5.2}{52}{Nutzungsarten des Wegweiser Portals\relax }{figure.caption.26}{}}
\@writefile{toc}{\contentsline {subsection}{\numberline {5.1.4}Spezifische Webseite der Beratungsstelle}{53}{subsection.5.1.4}}
\@writefile{toc}{\contentsline {subsection}{\numberline {5.1.5}Kooperationspartner und Dienstleister}{54}{subsection.5.1.5}}
\@writefile{lof}{\contentsline {figure}{\numberline {\relax 5.3}{\ignorespaces Definition Kooperationen\relax }}{54}{figure.5.3}}
\newlabel{defKP}{{\relax 5.3}{54}{Definition Kooperationen\relax }{figure.5.3}{}}
\@writefile{lof}{\contentsline {figure}{\numberline {\relax 5.4}{\ignorespaces Definition Dienstleister\relax }}{55}{figure.5.4}}
\newlabel{defDL}{{\relax 5.4}{55}{Definition Dienstleister\relax }{figure.5.4}{}}
\@writefile{lof}{\contentsline {figure}{\numberline {\relax 5.5}{\ignorespaces Kooperationspartner\relax }}{56}{figure.5.5}}
\newlabel{KPneu}{{\relax 5.5}{56}{Kooperationspartner\relax }{figure.5.5}{}}
\@writefile{lof}{\contentsline {figure}{\numberline {\relax 5.6}{\ignorespaces Dienstleister\relax }}{56}{figure.5.6}}
\newlabel{DLneu}{{\relax 5.6}{56}{Dienstleister\relax }{figure.5.6}{}}
\@writefile{lot}{\contentsline {table}{\numberline {\relax 5.1}{\ignorespaces Auswahl Kooperationspartner und Dienstleister\relax }}{57}{table.caption.27}}
\newlabel{ADLKP}{{\relax 5.1}{57}{Auswahl Kooperationspartner und Dienstleister\relax }{table.caption.27}{}}
\@writefile{toc}{\contentsline {section}{\numberline {5.2}Dokumentation}{58}{section.5.2}}
\@writefile{toc}{\contentsline {subsection}{\numberline {5.2.1}Alter}{58}{subsection.5.2.1}}
\newlabel{erstberatungen}{{5.2.1}{58}{Alter}{subsection.5.2.1}{}}
\@writefile{lof}{\contentsline {figure}{\numberline {\relax 5.7}{\ignorespaces Alter der Betroffenen\relax }}{59}{figure.caption.28}}
\newlabel{alter_kbs}{{\relax 5.7}{59}{Alter der Betroffenen\relax }{figure.caption.28}{}}
\@writefile{toc}{\contentsline {subsection}{\numberline {5.2.2}Erbrachte Leistungen}{59}{subsection.5.2.2}}
\@writefile{lot}{\contentsline {table}{\numberline {\relax 5.2}{\ignorespaces Erbrachte Leistungen pro Beratungsstelle\relax }}{59}{table.caption.29}}
\newlabel{erbracht_tab}{{\relax 5.2}{59}{Erbrachte Leistungen pro Beratungsstelle\relax }{table.caption.29}{}}
\@writefile{lof}{\contentsline {figure}{\numberline {\relax 5.8}{\ignorespaces Erbrachte Leistung\relax }}{60}{figure.caption.30}}
\newlabel{erbracht}{{\relax 5.8}{60}{Erbrachte Leistung\relax }{figure.caption.30}{}}
\@writefile{toc}{\contentsline {subsubsection}{\numberline {5.2.2.1}Beratungst\"atigkeiten}{61}{subsubsection.5.2.2.1}}
\@writefile{toc}{\contentsline {subsubsection}{\numberline {5.2.2.2}\"Offentlichkeitsarbeit}{61}{subsubsection.5.2.2.2}}
\@writefile{lof}{\contentsline {figure}{\numberline {\relax 5.9}{\ignorespaces Summe \"Offentlichkeitsarbeit\relax }}{61}{figure.5.9}}
\newlabel{summeoea}{{\relax 5.9}{61}{Summe Öffentlichkeitsarbeit\relax }{figure.5.9}{}}
\citation{Telko2}
\@writefile{toc}{\contentsline {subsubsection}{\numberline {5.2.2.3}Andere T\"atigkeiten}{62}{subsubsection.5.2.2.3}}
\@writefile{lof}{\contentsline {figure}{\numberline {\relax 5.10}{\ignorespaces T\"atigkeiten neben der Beratung\relax }}{62}{figure.caption.31}}
\newlabel{tat}{{\relax 5.10}{62}{Tätigkeiten neben der Beratung\relax }{figure.caption.31}{}}
\@writefile{toc}{\contentsline {subsection}{\numberline {5.2.3}Folgetermine}{62}{subsection.5.2.3}}
\@writefile{lof}{\contentsline {figure}{\numberline {\relax 5.11}{\ignorespaces Folgetermine im September\relax }}{63}{figure.caption.32}}
\newlabel{ft_sep}{{\relax 5.11}{63}{Folgetermine im September\relax }{figure.caption.32}{}}
\@writefile{toc}{\contentsline {subsection}{\numberline {5.2.4}Themen}{63}{subsection.5.2.4}}
\@writefile{lof}{\contentsline {figure}{\numberline {\relax 5.12}{\ignorespaces Themen im September\relax }}{64}{figure.caption.33}}
\newlabel{t_sep}{{\relax 5.12}{64}{Themen im September\relax }{figure.caption.33}{}}
\@writefile{toc}{\contentsline {subsection}{\numberline {5.2.5}Weiterempfehlungen}{64}{subsection.5.2.5}}
\citation{Telko2}
\@writefile{lof}{\contentsline {figure}{\numberline {\relax 5.13}{\ignorespaces Zugang durch\relax }}{65}{figure.5.13}}
\newlabel{zugangdurch}{{\relax 5.13}{65}{Zugang durch\relax }{figure.5.13}{}}
\@writefile{lof}{\contentsline {figure}{\numberline {\relax 5.14}{\ignorespaces Kontakt \"uber\relax }}{66}{figure.5.14}}
\newlabel{kontaktueber}{{\relax 5.14}{66}{Kontakt über\relax }{figure.5.14}{}}
\@writefile{toc}{\contentsline {subsection}{\numberline {5.2.6}Kooperationen}{66}{subsection.5.2.6}}
\newlabel{kp_alle}{{5.2.6}{66}{Kooperationen}{subsection.5.2.6}{}}
\@writefile{lof}{\contentsline {figure}{\numberline {\relax 5.15}{\ignorespaces Neuaufgebaute Kontakte: Organisationen\relax }}{67}{figure.5.15}}
\newlabel{kpsep}{{\relax 5.15}{67}{Neuaufgebaute Kontakte: Organisationen\relax }{figure.5.15}{}}
\@writefile{lof}{\contentsline {figure}{\numberline {\relax 5.16}{\ignorespaces Termine/Vorg\"ange mit Organisationen\relax }}{68}{figure.5.16}}
\newlabel{kontaktueber}{{\relax 5.16}{68}{Termine/Vorgänge mit Organisationen\relax }{figure.5.16}{}}
\@writefile{toc}{\contentsline {subsection}{\numberline {5.2.7}\"Offnungszeiten/Sprechzeiten}{68}{subsection.5.2.7}}
\@writefile{lot}{\contentsline {table}{\numberline {\relax 5.3}{\ignorespaces Uhrzeiten der Einzelberatung anhand der Beratendenbefragung\relax }}{69}{table.caption.34}}
\newlabel{uhr_befragung}{{\relax 5.3}{69}{Uhrzeiten der Einzelberatung anhand der Beratendenbefragung\relax }{table.caption.34}{}}
\@writefile{lot}{\contentsline {table}{\numberline {\relax 5.4}{\ignorespaces Uhrzeiten der Einzelberatung anhand der Dokumentation\relax }}{69}{table.caption.35}}
\newlabel{uhr_doku}{{\relax 5.4}{69}{Uhrzeiten der Einzelberatung anhand der Dokumentation\relax }{table.caption.35}{}}
\@writefile{lof}{\contentsline {figure}{\numberline {\relax 5.17}{\ignorespaces Uhrzeiten der Einzelberatungen (Dokumentation)\relax }}{70}{figure.5.17}}
\newlabel{uhr_alle}{{\relax 5.17}{70}{Uhrzeiten der Einzelberatungen (Dokumentation)\relax }{figure.5.17}{}}
\@writefile{toc}{\contentsline {subsection}{\numberline {5.2.8}Alter und Themen}{70}{subsection.5.2.8}}
\@writefile{lof}{\contentsline {figure}{\numberline {\relax 5.18}{\ignorespaces Alter und Themen\relax }}{71}{figure.caption.36}}
\newlabel{at}{{\relax 5.18}{71}{Alter und Themen\relax }{figure.caption.36}{}}
\@writefile{toc}{\contentsline {subsection}{\numberline {5.2.9}Empfehlungen}{71}{subsection.5.2.9}}
\@writefile{lof}{\contentsline {figure}{\numberline {\relax 5.19}{\ignorespaces Auszug aus den Empfehlungen\relax }}{72}{figure.caption.37}}
\newlabel{empf}{{\relax 5.19}{72}{Auszug aus den Empfehlungen\relax }{figure.caption.37}{}}
\@writefile{toc}{\contentsline {subsection}{\numberline {5.2.10}Schulungen/Vortr\"age}{72}{subsection.5.2.10}}
\@writefile{lot}{\contentsline {table}{\numberline {\relax 5.5}{\ignorespaces Schulungen/Vortr\"age\relax }}{72}{table.caption.38}}
\newlabel{schulung}{{\relax 5.5}{72}{Schulungen/Vorträge\relax }{table.caption.38}{}}
\citation{GKBS182014}
\citation{KBS5NV2014}
\@writefile{toc}{\contentsline {subsection}{\numberline {5.2.11}Demonstrationsumgebung}{73}{subsection.5.2.11}}
\@writefile{lot}{\contentsline {table}{\numberline {\relax 5.6}{\ignorespaces Demonstrationsumgebungen\relax }}{73}{table.caption.39}}
\newlabel{demo}{{\relax 5.6}{73}{Demonstrationsumgebungen\relax }{table.caption.39}{}}
\@writefile{toc}{\contentsline {section}{\numberline {5.3}Befragung zur Besucherzufriedenheit}{73}{section.5.3}}
\@writefile{lof}{\contentsline {figure}{\numberline {\relax 5.20}{\ignorespaces Nachverfolgungen im September\relax }}{74}{figure.caption.40}}
\newlabel{nv_sep}{{\relax 5.20}{74}{Nachverfolgungen im September\relax }{figure.caption.40}{}}
\@writefile{toc}{\contentsline {subsection}{\numberline {5.3.1}Beratung Allgemein}{74}{subsection.5.3.1}}
\@writefile{lof}{\contentsline {figure}{\numberline {\relax 5.21}{\ignorespaces Beratung Allgemein\relax }}{75}{figure.caption.41}}
\newlabel{allgBer}{{\relax 5.21}{75}{Beratung Allgemein\relax }{figure.caption.41}{}}
\@writefile{toc}{\contentsline {subsection}{\numberline {5.3.2}Erreichbarkeit,Zust\"andigkeit und Kooperation}{75}{subsection.5.3.2}}
\@writefile{toc}{\contentsline {subsection}{\numberline {5.3.3}Produkte}{75}{subsection.5.3.3}}
\@writefile{lof}{\contentsline {figure}{\numberline {\relax 5.22}{\ignorespaces Zufriedenheit mit den Produkten\relax }}{76}{figure.caption.42}}
\newlabel{zprodukte}{{\relax 5.22}{76}{Zufriedenheit mit den Produkten\relax }{figure.caption.42}{}}
\@writefile{toc}{\contentsline {subsection}{\numberline {5.3.4}Dienstleistungen}{77}{subsection.5.3.4}}
\@setckpt{chapter5}{
\setcounter{page}{78}
\setcounter{equation}{0}
\setcounter{enumi}{3}
\setcounter{enumii}{0}
\setcounter{enumiii}{0}
\setcounter{enumiv}{0}
\setcounter{footnote}{14}
\setcounter{mpfootnote}{0}
\setcounter{part}{0}
\setcounter{chapter}{5}
\setcounter{section}{3}
\setcounter{subsection}{4}
\setcounter{subsubsection}{0}
\setcounter{paragraph}{0}
\setcounter{subparagraph}{0}
\setcounter{figure}{22}
\setcounter{table}{6}
\setcounter{NAT@ctr}{0}
\setcounter{Item}{6}
\setcounter{Hfootnote}{14}
\setcounter{bookmark@seq@number}{59}
\setcounter{LT@tables}{1}
\setcounter{LT@chunks}{1}
\setcounter{r@tfl@t}{1}
\setcounter{AM@survey}{0}
\setcounter{ContinuedFloat}{0}
\setcounter{section@level}{2}
}
