\relax 
\providecommand\hyper@newdestlabel[2]{}
\@writefile{toc}{\contentsline {chapter}{\numberline {3}Grundlagen}{10}{chapter.3}}
\@writefile{lof}{\addvspace {10\p@ }}
\@writefile{lot}{\addvspace {10\p@ }}
\newlabel{KapKapitel3}{{3}{10}{Grundlagen}{chapter.3}{}}
\@writefile{toc}{\contentsline {section}{\numberline {3.1}Staats- und Verwaltungsaufbau von Deutschland}{10}{section.3.1}}
\citation{Wottawa1998}
\citation{Keller2005}
\citation{Kraemer2005}
\citation{Kraemer2005}
\citation{Keller2005}
\@writefile{lof}{\contentsline {figure}{\numberline {\relax 3.1}{\ignorespaces Verwaltungsstruktur Deutschlands\relax }}{11}{figure.caption.13}}
\newlabel{Verwaltung}{{\relax 3.1}{11}{Verwaltungsstruktur Deutschlands\relax }{figure.caption.13}{}}
\@writefile{toc}{\contentsline {section}{\numberline {3.2}Evaluation}{11}{section.3.2}}
\citation{Beywl2008}
\citation{Beywl2008}
\citation{Beywl2008}
\citation{Beywl2008}
\@writefile{toc}{\contentsline {subsection}{\numberline {3.2.1}Ablauf einer Evaluation}{12}{subsection.3.2.1}}
\citation{Beywl2008}
\citation{Beywl2008}
\citation{Beywl2008}
\citation{Beywl2008}
\citation{Beywl2008}
\citation{Beywl2008}
\citation{Beywl2008}
\citation{Beywl2008}
\citation{Beywl2008}
\citation{Beywl2008}
\citation{Beywl2008}
\citation{Beywl2008}
\citation{Mayer2009}
\citation{Keller2005}
\citation{Mayer2009}
\citation{niewerth2014}
\citation{Porst2011}
\citation{meister2002}
\citation{Keller2005}
\@writefile{toc}{\contentsline {subsection}{\numberline {3.2.2}Methoden}{15}{subsection.3.2.2}}
\citation{Mayer2000}
\citation{Kraemer2005}
\@writefile{toc}{\contentsline {section}{\numberline {3.3}Beratung}{16}{section.3.3}}
\@writefile{toc}{\contentsline {subsection}{\numberline {3.3.1}Definition Beratung}{16}{subsection.3.3.1}}
\citation{Kraemer2005}
\citation{Kraemer2005}
\citation{Kraemer2005}
\citation{zuK2009}
\citation{zechmeister2009}
\citation{Kraemer2005}
\@writefile{toc}{\contentsline {subsection}{\numberline {3.3.2}Aufbau einer Beratung}{17}{subsection.3.3.2}}
\@writefile{toc}{\contentsline {subsection}{\numberline {3.3.3}Beratungserfolg}{17}{subsection.3.3.3}}
\@writefile{toc}{\contentsline {subsubsection}{\numberline {3.3.3.1}Gr\"unde f\"ur eine Messung des Beratungserfolges}{17}{subsubsection.3.3.3.1}}
\citation{Kraemer2005}
\citation{niewerth2014}
\citation{meister2002}
\citation{homburg2008}
\citation{niewerth2014}
\citation{niewerth2014}
\citation{niewerth2014}
\@writefile{toc}{\contentsline {section}{\numberline {3.4}Kundenorientierung}{18}{section.3.4}}
\@writefile{toc}{\contentsline {subsection}{\numberline {3.4.1}Messung der Zufriedenheit}{18}{subsection.3.4.1}}
\gdef \LT@i {\LT@entry 
    {1}{228.42206pt}\LT@entry 
    {1}{228.02206pt}}
\@writefile{lot}{\contentsline {table}{\numberline {\relax 3.1}{\ignorespaces Schritte zur Messung der Kundenzufriedenheit (Eigene Darstellung in Anlehnung an \citep  [S. 65]{niewerth2014})}}{19}{table.3.1}}
\newlabel{schritte}{{\relax 3.1}{19}{Schritte zur Messung der Kundenzufriedenheit (Eigene Darstellung in Anlehnung an \citep [S. 65]{niewerth2014})}{table.3.1}{}}
\citation{niewerth2014}
\citation{niewerth2014}
\citation{niewerth2014}
\citation{niewerth2014}
\citation{niewerth2014}
\@writefile{lof}{\contentsline {figure}{\numberline {\relax 3.2}{\ignorespaces Messverfahren Kundenzufriedenheit (Eigene Darstellung in Anlehnung an \citep  [S. 98]{niewerth2014})\relax }}{20}{figure.3.2}}
\newlabel{messverfahren}{{\relax 3.2}{20}{Messverfahren Kundenzufriedenheit (Eigene Darstellung in Anlehnung an \citep [S. 98]{niewerth2014})\relax }{figure.3.2}{}}
\citation{niewerth2014}
\citation{niewerth2014}
\citation{niewerth2014}
\citation{meister2002}
\citation{meister2002}
\citation{meister2002}
\citation{meister2002}
\citation{meister2002}
\citation{meister2002}
\citation{meister2002}
\citation{kuenzel2012}
\citation{kuenzel2012}
\citation{kuenzel2012}
\@writefile{lof}{\contentsline {figure}{\numberline {\relax 3.3}{\ignorespaces Wichtigkeits-Zufriedenheitsmatrix \citep  [S. 82]{meister2002}\relax }}{22}{figure.caption.14}}
\newlabel{Zufriedenheitsmatrix}{{\relax 3.3}{22}{Wichtigkeits-Zufriedenheitsmatrix \citep [S. 82]{meister2002}\relax }{figure.caption.14}{}}
\@writefile{toc}{\contentsline {subsection}{\numberline {3.4.2}\"Offentlichkeitsarbeit}{22}{subsection.3.4.2}}
\citation{Meiners2011}
\citation{Meiners2011}
\citation{Meiners2011}
\@writefile{lof}{\contentsline {figure}{\numberline {\relax 3.4}{\ignorespaces Internetnutzung nach Altersgruppen\relax }}{23}{figure.caption.15}}
\newlabel{Internetnutzung}{{\relax 3.4}{23}{Internetnutzung nach Altersgruppen\relax }{figure.caption.15}{}}
\@setckpt{chapter3}{
\setcounter{page}{24}
\setcounter{equation}{0}
\setcounter{enumi}{3}
\setcounter{enumii}{0}
\setcounter{enumiii}{0}
\setcounter{enumiv}{0}
\setcounter{footnote}{5}
\setcounter{mpfootnote}{0}
\setcounter{part}{0}
\setcounter{chapter}{3}
\setcounter{section}{4}
\setcounter{subsection}{2}
\setcounter{subsubsection}{0}
\setcounter{paragraph}{0}
\setcounter{subparagraph}{0}
\setcounter{figure}{4}
\setcounter{table}{1}
\setcounter{NAT@ctr}{0}
\setcounter{Item}{3}
\setcounter{Hfootnote}{5}
\setcounter{bookmark@seq@number}{28}
\setcounter{LT@tables}{1}
\setcounter{LT@chunks}{1}
\setcounter{r@tfl@t}{0}
\setcounter{AM@survey}{0}
\setcounter{ContinuedFloat}{0}
\setcounter{section@level}{2}
}
