\relax 
\providecommand\hyper@newdestlabel[2]{}
\citation{FZI2014}
\@writefile{toc}{\contentsline {chapter}{\numberline {2}Besser leben im Alter durch Technik}{5}{chapter.2}}
\@writefile{lof}{\addvspace {10\p@ }}
\@writefile{lot}{\addvspace {10\p@ }}
\newlabel{KapKapitel2}{{2}{5}{Besser leben im Alter durch Technik}{chapter.2}{}}
\@writefile{lof}{\contentsline {figure}{\numberline {\relax 2.1}{\ignorespaces Verteilung der Beratungsstellen\relax }}{5}{figure.caption.8}}
\providecommand*\caption@xref[2]{\@setref\relax\@undefined{#1}}
\newlabel{Verteilung KBS}{{\relax 2.1}{5}{Verteilung der Beratungsstellen\relax }{figure.caption.8}{}}
\citation{FZI2014}
\citation{FZI2014}
\citation{FZI2014}
\@writefile{toc}{\contentsline {section}{\numberline {2.1}CareTech}{6}{section.2.1}}
\@writefile{lof}{\contentsline {figure}{\numberline {\relax 2.2}{\ignorespaces Klientenzentrierte Dokumentation\relax }}{6}{figure.caption.9}}
\newlabel{Klientenzentrierte Dokumentation}{{\relax 2.2}{6}{Klientenzentrierte Dokumentation\relax }{figure.caption.9}{}}
\citation{Roell2014}
\@writefile{lof}{\contentsline {figure}{\numberline {\relax 2.3}{\ignorespaces CareTech Ansicht\relax }}{7}{figure.caption.10}}
\newlabel{CareTech Ansicht}{{\relax 2.3}{7}{CareTech Ansicht\relax }{figure.caption.10}{}}
\@writefile{toc}{\contentsline {section}{\numberline {2.2}Portal}{7}{section.2.2}}
\citation{Roell2014}
\citation{Roell2014}
\citation{Roell2014}
\@writefile{lof}{\contentsline {figure}{\numberline {\relax 2.4}{\ignorespaces Webseite Wegweiser Alter und Technik\relax }}{8}{figure.caption.11}}
\newlabel{Wegweiser Alter und Technik}{{\relax 2.4}{8}{Webseite Wegweiser Alter und Technik\relax }{figure.caption.11}{}}
\@writefile{toc}{\contentsline {section}{\numberline {2.3}Ablauf der Beratung und Netzwerkaktivit\"at}{8}{section.2.3}}
\@writefile{lof}{\contentsline {figure}{\numberline {\relax 2.5}{\ignorespaces Ablauf der Beratung und Netzwerkaktivit\"at\relax }}{8}{figure.caption.12}}
\newlabel{Ablauf der Beratung}{{\relax 2.5}{8}{Ablauf der Beratung und Netzwerkaktivit\"at\relax }{figure.caption.12}{}}
\citation{Roell2014}
\citation{Roell2014}
\@setckpt{chapter2}{
\setcounter{page}{10}
\setcounter{equation}{0}
\setcounter{enumi}{0}
\setcounter{enumii}{0}
\setcounter{enumiii}{0}
\setcounter{enumiv}{0}
\setcounter{footnote}{3}
\setcounter{mpfootnote}{0}
\setcounter{part}{0}
\setcounter{chapter}{2}
\setcounter{section}{3}
\setcounter{subsection}{0}
\setcounter{subsubsection}{0}
\setcounter{paragraph}{0}
\setcounter{subparagraph}{0}
\setcounter{figure}{5}
\setcounter{table}{0}
\setcounter{NAT@ctr}{0}
\setcounter{Item}{0}
\setcounter{Hfootnote}{3}
\setcounter{bookmark@seq@number}{16}
\setcounter{LT@tables}{0}
\setcounter{LT@chunks}{0}
\setcounter{r@tfl@t}{0}
\setcounter{AM@survey}{0}
\setcounter{ContinuedFloat}{0}
\setcounter{section@level}{1}
}
