\select@language {ngerman}
\addvspace {10\p@ }
\addvspace {10\p@ }
\addvspace {10\p@ }
\addvspace {10\p@ }
\addvspace {10\p@ }
\addvspace {10\p@ }
\contentsline {table}{\numberline {\relax 3.1}{\ignorespaces Schritte zur Messung der Kundenzufriedenheit (Eigene Darstellung in Anlehnung an \citep [S. 65]{niewerth2014})}}{19}{table.3.1}
\addvspace {10\p@ }
\contentsline {table}{\numberline {\relax 4.1}{\ignorespaces Evaluationsziele\relax }}{42}{table.caption.22}
\contentsline {table}{\numberline {\relax 4.2}{\ignorespaces Abdeckung der Unterziele\relax }}{43}{table.caption.23}
\contentsline {table}{\numberline {\relax 4.3}{\ignorespaces Abfragen CareTech\relax }}{44}{table.caption.24}
\addvspace {10\p@ }
\contentsline {table}{\numberline {\relax 5.1}{\ignorespaces Auswahl Kooperationspartner und Dienstleister\relax }}{57}{table.caption.27}
\contentsline {table}{\numberline {\relax 5.2}{\ignorespaces Erbrachte Leistungen pro Beratungsstelle\relax }}{59}{table.caption.29}
\contentsline {table}{\numberline {\relax 5.3}{\ignorespaces Uhrzeiten der Einzelberatung anhand der Beratendenbefragung\relax }}{69}{table.caption.34}
\contentsline {table}{\numberline {\relax 5.4}{\ignorespaces Uhrzeiten der Einzelberatung anhand der Dokumentation\relax }}{69}{table.caption.35}
\contentsline {table}{\numberline {\relax 5.5}{\ignorespaces Schulungen/Vortr\"age\relax }}{72}{table.caption.38}
\contentsline {table}{\numberline {\relax 5.6}{\ignorespaces Demonstrationsumgebungen\relax }}{73}{table.caption.39}
\addvspace {10\p@ }
\addvspace {10\p@ }
\addvspace {10\p@ }
\addvspace {10\p@ }
\addvspace {10\p@ }
