\relax 
\providecommand\hyper@newdestlabel[2]{}
\providecommand\HyperFirstAtBeginDocument{\AtBeginDocument}
\HyperFirstAtBeginDocument{\ifx\hyper@anchor\@undefined
\global\let\oldcontentsline\contentsline
\gdef\contentsline#1#2#3#4{\oldcontentsline{#1}{#2}{#3}}
\global\let\oldnewlabel\newlabel
\gdef\newlabel#1#2{\newlabelxx{#1}#2}
\gdef\newlabelxx#1#2#3#4#5#6{\oldnewlabel{#1}{{#2}{#3}}}
\AtEndDocument{\ifx\hyper@anchor\@undefined
\let\contentsline\oldcontentsline
\let\newlabel\oldnewlabel
\fi}
\fi}
\global\let\hyper@last\relax 
\gdef\HyperFirstAtBeginDocument#1{#1}
\providecommand\HyField@AuxAddToFields[1]{}
\providecommand\HyField@AuxAddToCoFields[2]{}
\catcode `"\active 
\providecommand \oddpage@label [2]{}
\select@language{ngerman}
\@writefile{toc}{\select@language{ngerman}}
\@writefile{lof}{\select@language{ngerman}}
\@writefile{lot}{\select@language{ngerman}}
\@input{acknowledgements.aux}
\@input{abstract.aux}
\citation{niewerth2014}
\citation{meister2002}
\@writefile{toc}{\contentsline {chapter}{Abbildungsverzeichnis}{x}{chapter*.5}}
\citation{niewerth2014}
\@writefile{toc}{\contentsline {chapter}{Tabellenverzeichnis}{xi}{chapter*.6}}
\@writefile{toc}{\contentsline {chapter}{Abk\"urzungsverzeichnis}{xii}{chapter*.7}}
\@input{chapter1.aux}
\@input{chapter2.aux}
\@input{chapter3.aux}
\@input{chapter4.aux}
\@input{chapter5.aux}
\@input{chapter6.aux}
\@input{chapter7.aux}
\bibstyle{myapalike}
\bibdata{myBibliography}
\bibcite{Beywl2008}{{1}{2008}{{{Beywl, W.} et~al.}}{{}}}
\bibcite{Telko2014}{{2}{2014}{{{Bruchh\"auser, N.} et~al.}}{{}}}
\bibcite{Telko2}{{3}{2014}{{{Efker, N.} et~al.}}{{}}}
\bibcite{FZI2014}{{4}{2014}{{FZI}}{{}}}
\bibcite{homburg2008}{{5}{2008}{{{Homburg, C.} et~al.}}{{}}}
\bibcite{KBS102014}{{6}{2014}{{KBS 10}}{{}}}
\bibcite{GKBS182014}{{7}{2014}{{KBS 18}}{{}}}
\bibcite{KBS32014}{{8}{2014}{{KBS 3}}{{}}}
\bibcite{KBS42014}{{9}{2014}{{KBS 4}}{{}}}
\bibcite{KBS5NV2014}{{10}{2014}{{KBS 5}}{{}}}
\bibcite{KBS62014}{{11}{2014}{{KBS 6}}{{}}}
\bibcite{Keller2005}{{12}{2005}{{{Keller-Eber, C. } et~al.}}{{}}}
\@writefile{toc}{\contentsline {chapter}{Literaturverzeichnis}{83}{chapter*.43}}
\@writefile{lof}{\addvspace {10\p@ }}
\@writefile{lot}{\addvspace {10\p@ }}
\bibcite{kostka2013}{{13}{2013}{{{Kostka, C.} und {Kostka, S.}}}{{}}}
\bibcite{Kraemer2005}{{14}{2005}{{Kr\"amer, M.}}{{}}}
\bibcite{kuenzel2012}{{15}{2012}{{K\"unzel, H.}}{{}}}
\bibcite{A2LICE2014}{{16}{2014}{{{Leonhardt, S.} et~al.}}{{}}}
\bibcite{Mayer2000}{{17}{2000}{{Mayer}}{{}}}
\bibcite{Mayer2009}{{18}{2009}{{Mayer}}{{}}}
\bibcite{Meiners2011}{{19}{2011}{{{Meiners, N.} et~al.}}{{}}}
\bibcite{meister2002}{{20}{2002}{{{Meister, U.} und {Meister, H.}}}{{}}}
\bibcite{Mueller2014}{{21}{2014}{{M\"uller, E.}}{{}}}
\bibcite{niewerth2014}{{22}{2014}{{{Niewerth, B.} und {Thiele, H.}}}{{}}}
\bibcite{Porst2011}{{23}{2011}{{Porst}}{{}}}
\bibcite{GPorsch2014}{{24}{2014}{{Projekt Alter und Technik}}{{}}}
\bibcite{Roell2014}{{25}{2014}{{R\"oll}}{{}}}
\bibcite{Wottawa1998}{{26}{1998}{{{Wottawa, H.} und {Thierau, H.}}}{{}}}
\bibcite{zechmeister2009}{{27}{2009}{{{Zechmeister, I.} und {Radlberger, P.}}}{{}}}
\bibcite{zuK2009}{{28}{2009}{{{zu Knyphausen-Aufse{\ss }, D.} et~al.}}{{}}}
\@writefile{toc}{\contentsline {chapter}{Internetquellen}{86}{chapter*.44}}
\@writefile{lof}{\addvspace {10\p@ }}
\@writefile{lot}{\addvspace {10\p@ }}
\@input{appendix1.aux}
\@writefile{toc}{\contentsline {chapter}{Eidesstattliche Erkl\"{a}rung}{111}{appendix*.45}}
\global\@altsecnumformattrue
