\citation{NB2013}
\citation{BMBF2013}
\citation{BMBF2013}
\citation{PM2014}
\citation{BMBF2013}
\citation{BMBF2013}
\citation{FZI2013}
\citation{FZIa2013}
\citation{DIMDI2014}
\citation{BMI2006}
\citation{BMI2006}
\citation{Wiki2010}
\citation{BMI2006}
\citation{DEGEVAL2008}
\citation{MCH2003}
\citation{MCH2003}
\citation{MCH2003}
\citation{Moench2005}
\citation{nonliner2014}
\citation{BMBF2013}
\citation{BMBF2013}
\citation{BAR2013}
\bibstyle{myapalike}
\bibdata{myBibliography}
\bibcite{PM2014}{{29}{2014}{{Angermeier, G. }}{{}}}
\bibcite{BMBF2013}{{30}{2013}{{BMBF}}{{}}}
\bibcite{BMI2006}{{31}{2006}{{BMI}}{{}}}
\bibcite{BAR2013}{{32}{2013}{{Bundesarbeitsgemeinschaft f\"ur Rehabilitation (BAR) e.V.}}{{}}}
\bibcite{DEGEVAL2008}{{33}{2008}{{DeGeval Gesellschaft f\"ur Evaluation e.V.}}{{}}}
\bibcite{DIMDI2014}{{34}{2014}{{Deutsches Institut f\"ur Medizinische Dokumentation und Information}}{{}}}
\bibcite{FZIa2013}{{35}{2013a}{{FZI}}{{}}}
\bibcite{FZI2013}{{36}{2013b}{{FZI}}{{}}}
\bibcite{nonliner2014}{{37}{2014}{{Initiative D21}}{{}}}
\bibcite{MCH2003}{{38}{2003}{{Management Center Handwerk (MCH)}}{{}}}
\bibcite{Moench2005}{{39}{2005}{{M{\"o}nch-Kalina}}{{}}}
\bibcite{NB2013}{{40}{2013}{{Theussig, S.}}{{}}}
\bibcite{Wiki2010}{{41}{2010}{{Wikipedia}}{{}}}
